p8105_hw3_my2644
…
###problem 1

data("instacart")

This dataset contains 1384617 rows and 15 columns.

Observations are the level of items in orders by user. There are user/order variables  user ID, order ID, order day, and order hour. There are also item variables  name, aisle, department, and some numeric codes.

How many aisles are there, and which aisles are the most items ordered from?

instacart %>% 
  count (aisle) %>% 
  arrange (desc(n)) 

## # A tibble: 134 x 2
##    aisle                              n
##    <chr>                          <int>
##  1 fresh vegetables              150609
##  2 fresh fruits                  150473
##  3 packaged vegetables fruits     78493
##  4 yogurt                         55240
##  5 packaged cheese                41699
##  6 water seltzer sparkling water  36617
##  7 milk                           32644
##  8 chips pretzels                 31269
##  9 soy lactosefree                26240
## 10 bread                          23635
## #  with 124 more rows
…
This dataset collects the data of weather conditions from all monitoning stations in NY, during January 1, 1981 through December 31, 2010. It contains 1222433 rows and 9 columns. There are 9 Variables, which include year, month, day, prcp (precipitation (mm)), snow (snowfall (mm)), snwd (snow depth (mm)), tmax (maximum temperature (degrees Celcius)), and tmin (minimum temperature (degrees Celcius)). The original dataset contains 2595176 observations, and 1372743 , Observations with missing data were removed from the original dataset.

nycweather_df %>%
  count(snow) %>%
  arrange(desc(n))

## # A tibble: 248 x 2
##     snow       n
##    <int>   <int>
##  1     0 1112758
##  2    25   15809
##  3    13   12460
##  4    51    9252
##  5     5    5669
##  6     8    5380
##  7    76    5296
##  8     3    5276
##  9    38    5050
## 10   102    3386
## #  with 238 more rows
…
